33  42  2.6  #  charged donor and charged acceptor
33  176  2.6  #  charged donor and charged acceptor
33  180  2.6  #  charged donor and charged acceptor
33  181  2.6  #  charged donor and charged acceptor
33  188  2.6  #  charged donor and charged acceptor
33  199  2.6  #  charged donor and charged acceptor
37  42  2.6  #  charged donor and charged acceptor
37  176  2.6  #  charged donor and charged acceptor
37  180  2.6  #  charged donor and charged acceptor
37  181  2.6  #  charged donor and charged acceptor
37  188  2.6  #  charged donor and charged acceptor
37  199  2.6  #  charged donor and charged acceptor
39  42  2.6  #  charged donor and charged acceptor
39  176  2.6  #  charged donor and charged acceptor
39  180  2.6  #  charged donor and charged acceptor
39  181  2.6  #  charged donor and charged acceptor
39  188  2.6  #  charged donor and charged acceptor
39  199  2.6  #  charged donor and charged acceptor
36  42  2.6  #  charged donor and charged acceptor
36  176  2.6  #  charged donor and charged acceptor
36  180  2.6  #  charged donor and charged acceptor
36  181  2.6  #  charged donor and charged acceptor
36  188  2.6  #  charged donor and charged acceptor
36  199  2.6  #  charged donor and charged acceptor
149  42  2.6  #  charged donor and charged acceptor
149  176  2.6  # charged donor and charged acceptor
149  180  2.6  # charged donor and charged acceptor
149  181  2.6  # charged donor and charged acceptor
149  188  2.6  # charged donor and charged acceptor
149  199  2.6  # charged donor and charged acceptor
153  42  2.6  #  charged donor and charged acceptor
153  176  2.6  # charged donor and charged acceptor
153  180  2.6  # charged donor and charged acceptor
153  181  2.6  # charged donor and charged acceptor
153  188  2.6  # charged donor and charged acceptor
153  199  2.6  # charged donor and charged acceptor
172  42  2.6  #  charged donor and charged acceptor
172  176  2.6  # charged donor and charged acceptor
172  180  2.6  # charged donor and charged acceptor
172  181  2.6  # charged donor and charged acceptor
172  188  2.6  # charged donor and charged acceptor
172  199  2.6  # charged donor and charged acceptor
173  42  2.6  #  charged donor and charged acceptor
173  176  2.6  # charged donor and charged acceptor
173  180  2.6  # charged donor and charged acceptor
173  181  2.6  # charged donor and charged acceptor
173  188  2.6  # charged donor and charged acceptor
173  199  2.6  # charged donor and charged acceptor
174  42  2.6  #  charged donor and charged acceptor
174  176  2.6  # charged donor and charged acceptor
174  180  2.6  # charged donor and charged acceptor
174  181  2.6  # charged donor and charged acceptor
174  188  2.6  # charged donor and charged acceptor
174  199  2.6  # charged donor and charged acceptor
33  32  2.75  #  charged donor and non charged acceptor
33  40  2.75  #  charged donor and non charged acceptor
33  41  2.75  #  charged donor and non charged acceptor
33  43  2.75  #  charged donor and non charged acceptor
33  44  2.75  #  charged donor and non charged acceptor
33  45  2.75  #  charged donor and non charged acceptor
33  205  2.75  # charged donor and non charged acceptor
33  218  2.75  # charged donor and non charged acceptor
33  146  2.75  # charged donor and non charged acceptor
33  147  2.75  # charged donor and non charged acceptor
33  151  2.75  # charged donor and non charged acceptor
33  155  2.75  # charged donor and non charged acceptor
33  156  2.75  # charged donor and non charged acceptor
33  158  2.75  # charged donor and non charged acceptor
33  159  2.75  # charged donor and non charged acceptor
33  160  2.75  # charged donor and non charged acceptor
33  161  2.75  # charged donor and non charged acceptor
33  165  2.75  # charged donor and non charged acceptor
33  170  2.75  # charged donor and non charged acceptor
33  175  2.75  # charged donor and non charged acceptor
33  177  2.75  # charged donor and non charged acceptor
33  178  2.75  # charged donor and non charged acceptor
33  179  2.75  # charged donor and non charged acceptor
33  182  2.75  # charged donor and non charged acceptor
33  183  2.75  # charged donor and non charged acceptor
33  184  2.75  # charged donor and non charged acceptor
33  185  2.75  # charged donor and non charged acceptor
33  186  2.75  # charged donor and non charged acceptor
33  187  2.75  # charged donor and non charged acceptor
33  189  2.75  # charged donor and non charged acceptor
33  190  2.75  # charged donor and non charged acceptor
33  191  2.75  # charged donor and non charged acceptor
33  192  2.75  # charged donor and non charged acceptor
33  196  2.75  # charged donor and non charged acceptor
33  197  2.75  # charged donor and non charged acceptor
33  198  2.75  # charged donor and non charged acceptor
33  200  2.75  # charged donor and non charged acceptor
37  32  2.75  #  charged donor and non charged acceptor
37  40  2.75  #  charged donor and non charged acceptor
37  41  2.75  #  charged donor and non charged acceptor
37  43  2.75  #  charged donor and non charged acceptor
37  44  2.75  #  charged donor and non charged acceptor
37  45  2.75  #  charged donor and non charged acceptor
37  205  2.75  # charged donor and non charged acceptor
37  218  2.75  # charged donor and non charged acceptor
37  146  2.75  # charged donor and non charged acceptor
37  147  2.75  # charged donor and non charged acceptor
37  151  2.75  # charged donor and non charged acceptor
37  155  2.75  # charged donor and non charged acceptor
37  156  2.75  # charged donor and non charged acceptor
37  158  2.75  # charged donor and non charged acceptor
37  159  2.75  # charged donor and non charged acceptor
37  160  2.75  # charged donor and non charged acceptor
37  161  2.75  # charged donor and non charged acceptor
37  165  2.75  # charged donor and non charged acceptor
37  170  2.75  # charged donor and non charged acceptor
37  175  2.75  # charged donor and non charged acceptor
37  177  2.75  # charged donor and non charged acceptor
37  178  2.75  # charged donor and non charged acceptor
37  179  2.75  # charged donor and non charged acceptor
37  182  2.75  # charged donor and non charged acceptor
37  183  2.75  # charged donor and non charged acceptor
37  184  2.75  # charged donor and non charged acceptor
37  185  2.75  # charged donor and non charged acceptor
37  186  2.75  # charged donor and non charged acceptor
37  187  2.75  # charged donor and non charged acceptor
37  189  2.75  # charged donor and non charged acceptor
37  190  2.75  # charged donor and non charged acceptor
37  191  2.75  # charged donor and non charged acceptor
37  192  2.75  # charged donor and non charged acceptor
37  196  2.75  # charged donor and non charged acceptor
37  197  2.75  # charged donor and non charged acceptor
37  198  2.75  # charged donor and non charged acceptor
37  200  2.75  # charged donor and non charged acceptor
39  32  2.75  #  charged donor and non charged acceptor
39  40  2.75  #  charged donor and non charged acceptor
39  41  2.75  #  charged donor and non charged acceptor
39  43  2.75  #  charged donor and non charged acceptor
39  44  2.75  #  charged donor and non charged acceptor
39  45  2.75  #  charged donor and non charged acceptor
39  205  2.75  # charged donor and non charged acceptor
39  218  2.75  # charged donor and non charged acceptor
39  146  2.75  # charged donor and non charged acceptor
39  147  2.75  # charged donor and non charged acceptor
39  151  2.75  # charged donor and non charged acceptor
39  155  2.75  # charged donor and non charged acceptor
39  156  2.75  # charged donor and non charged acceptor
39  158  2.75  # charged donor and non charged acceptor
39  159  2.75  # charged donor and non charged acceptor
39  160  2.75  # charged donor and non charged acceptor
39  161  2.75  # charged donor and non charged acceptor
39  165  2.75  # charged donor and non charged acceptor
39  170  2.75  # charged donor and non charged acceptor
39  175  2.75  # charged donor and non charged acceptor
39  177  2.75  # charged donor and non charged acceptor
39  178  2.75  # charged donor and non charged acceptor
39  179  2.75  # charged donor and non charged acceptor
39  182  2.75  # charged donor and non charged acceptor
39  183  2.75  # charged donor and non charged acceptor
39  184  2.75  # charged donor and non charged acceptor
39  185  2.75  # charged donor and non charged acceptor
39  186  2.75  # charged donor and non charged acceptor
39  187  2.75  # charged donor and non charged acceptor
39  189  2.75  # charged donor and non charged acceptor
39  190  2.75  # charged donor and non charged acceptor
39  191  2.75  # charged donor and non charged acceptor
39  192  2.75  # charged donor and non charged acceptor
39  196  2.75  # charged donor and non charged acceptor
39  197  2.75  # charged donor and non charged acceptor
39  198  2.75  # charged donor and non charged acceptor
39  200  2.75  # charged donor and non charged acceptor
36  32  2.75  #  charged donor and non charged acceptor
36  40  2.75  #  charged donor and non charged acceptor
36  41  2.75  #  charged donor and non charged acceptor
36  43  2.75  #  charged donor and non charged acceptor
36  44  2.75  #  charged donor and non charged acceptor
36  45  2.75  #  charged donor and non charged acceptor
36  205  2.75  # charged donor and non charged acceptor
36  218  2.75  # charged donor and non charged acceptor
36  146  2.75  # charged donor and non charged acceptor
36  147  2.75  # charged donor and non charged acceptor
36  151  2.75  # charged donor and non charged acceptor
36  155  2.75  # charged donor and non charged acceptor
36  156  2.75  # charged donor and non charged acceptor
36  158  2.75  # charged donor and non charged acceptor
36  159  2.75  # charged donor and non charged acceptor
36  160  2.75  # charged donor and non charged acceptor
36  161  2.75  # charged donor and non charged acceptor
36  165  2.75  # charged donor and non charged acceptor
36  170  2.75  # charged donor and non charged acceptor
36  175  2.75  # charged donor and non charged acceptor
36  177  2.75  # charged donor and non charged acceptor
36  178  2.75  # charged donor and non charged acceptor
36  179  2.75  # charged donor and non charged acceptor
36  182  2.75  # charged donor and non charged acceptor
36  183  2.75  # charged donor and non charged acceptor
36  184  2.75  # charged donor and non charged acceptor
36  185  2.75  # charged donor and non charged acceptor
36  186  2.75  # charged donor and non charged acceptor
36  187  2.75  # charged donor and non charged acceptor
36  189  2.75  # charged donor and non charged acceptor
36  190  2.75  # charged donor and non charged acceptor
36  191  2.75  # charged donor and non charged acceptor
36  192  2.75  # charged donor and non charged acceptor
36  196  2.75  # charged donor and non charged acceptor
36  197  2.75  # charged donor and non charged acceptor
36  198  2.75  # charged donor and non charged acceptor
36  200  2.75  # charged donor and non charged acceptor
149  32  2.75  # charged donor and non charged acceptor
149  40  2.75  # charged donor and non charged acceptor
149  41  2.75  # charged donor and non charged acceptor
149  43  2.75  # charged donor and non charged acceptor
149  44  2.75  # charged donor and non charged acceptor
149  45  2.75  # charged donor and non charged acceptor
149  205  2.75  # charged donor and non charged acceptor
149  218  2.75  # charged donor and non charged acceptor
149  146  2.75  # charged donor and non charged acceptor
149  147  2.75  # charged donor and non charged acceptor
149  151  2.75  # charged donor and non charged acceptor
149  155  2.75  # charged donor and non charged acceptor
149  156  2.75  # charged donor and non charged acceptor
149  158  2.75  # charged donor and non charged acceptor
149  159  2.75  # charged donor and non charged acceptor
149  160  2.75  # charged donor and non charged acceptor
149  161  2.75  # charged donor and non charged acceptor
149  165  2.75  # charged donor and non charged acceptor
149  170  2.75  # charged donor and non charged acceptor
149  175  2.75  # charged donor and non charged acceptor
149  177  2.75  # charged donor and non charged acceptor
149  178  2.75  # charged donor and non charged acceptor
149  179  2.75  # charged donor and non charged acceptor
149  182  2.75  # charged donor and non charged acceptor
149  183  2.75  # charged donor and non charged acceptor
149  184  2.75  # charged donor and non charged acceptor
149  185  2.75  # charged donor and non charged acceptor
149  186  2.75  # charged donor and non charged acceptor
149  187  2.75  # charged donor and non charged acceptor
149  189  2.75  # charged donor and non charged acceptor
149  190  2.75  # charged donor and non charged acceptor
149  191  2.75  # charged donor and non charged acceptor
149  192  2.75  # charged donor and non charged acceptor
149  196  2.75  # charged donor and non charged acceptor
149  197  2.75  # charged donor and non charged acceptor
149  198  2.75  # charged donor and non charged acceptor
149  200  2.75  # charged donor and non charged acceptor
153  32  2.75  # charged donor and non charged acceptor
153  40  2.75  # charged donor and non charged acceptor
153  41  2.75  # charged donor and non charged acceptor
153  43  2.75  # charged donor and non charged acceptor
153  44  2.75  # charged donor and non charged acceptor
153  45  2.75  # charged donor and non charged acceptor
153  205  2.75  # charged donor and non charged acceptor
153  218  2.75  # charged donor and non charged acceptor
153  146  2.75  # charged donor and non charged acceptor
153  147  2.75  # charged donor and non charged acceptor
153  151  2.75  # charged donor and non charged acceptor
153  155  2.75  # charged donor and non charged acceptor
153  156  2.75  # charged donor and non charged acceptor
153  158  2.75  # charged donor and non charged acceptor
153  159  2.75  # charged donor and non charged acceptor
153  160  2.75  # charged donor and non charged acceptor
153  161  2.75  # charged donor and non charged acceptor
153  165  2.75  # charged donor and non charged acceptor
153  170  2.75  # charged donor and non charged acceptor
153  175  2.75  # charged donor and non charged acceptor
153  177  2.75  # charged donor and non charged acceptor
153  178  2.75  # charged donor and non charged acceptor
153  179  2.75  # charged donor and non charged acceptor
153  182  2.75  # charged donor and non charged acceptor
153  183  2.75  # charged donor and non charged acceptor
153  184  2.75  # charged donor and non charged acceptor
153  185  2.75  # charged donor and non charged acceptor
153  186  2.75  # charged donor and non charged acceptor
153  187  2.75  # charged donor and non charged acceptor
153  189  2.75  # charged donor and non charged acceptor
153  190  2.75  # charged donor and non charged acceptor
153  191  2.75  # charged donor and non charged acceptor
153  192  2.75  # charged donor and non charged acceptor
153  196  2.75  # charged donor and non charged acceptor
153  197  2.75  # charged donor and non charged acceptor
153  198  2.75  # charged donor and non charged acceptor
153  200  2.75  # charged donor and non charged acceptor
172  32  2.75  # charged donor and non charged acceptor
172  40  2.75  # charged donor and non charged acceptor
172  41  2.75  # charged donor and non charged acceptor
172  43  2.75  # charged donor and non charged acceptor
172  44  2.75  # charged donor and non charged acceptor
172  45  2.75  # charged donor and non charged acceptor
172  205  2.75  # charged donor and non charged acceptor
172  218  2.75  # charged donor and non charged acceptor
172  146  2.75  # charged donor and non charged acceptor
172  147  2.75  # charged donor and non charged acceptor
172  151  2.75  # charged donor and non charged acceptor
172  155  2.75  # charged donor and non charged acceptor
172  156  2.75  # charged donor and non charged acceptor
172  158  2.75  # charged donor and non charged acceptor
172  159  2.75  # charged donor and non charged acceptor
172  160  2.75  # charged donor and non charged acceptor
172  161  2.75  # charged donor and non charged acceptor
172  165  2.75  # charged donor and non charged acceptor
172  170  2.75  # charged donor and non charged acceptor
172  175  2.75  # charged donor and non charged acceptor
172  177  2.75  # charged donor and non charged acceptor
172  178  2.75  # charged donor and non charged acceptor
172  179  2.75  # charged donor and non charged acceptor
172  182  2.75  # charged donor and non charged acceptor
172  183  2.75  # charged donor and non charged acceptor
172  184  2.75  # charged donor and non charged acceptor
172  185  2.75  # charged donor and non charged acceptor
172  186  2.75  # charged donor and non charged acceptor
172  187  2.75  # charged donor and non charged acceptor
172  189  2.75  # charged donor and non charged acceptor
172  190  2.75  # charged donor and non charged acceptor
172  191  2.75  # charged donor and non charged acceptor
172  192  2.75  # charged donor and non charged acceptor
172  196  2.75  # charged donor and non charged acceptor
172  197  2.75  # charged donor and non charged acceptor
172  198  2.75  # charged donor and non charged acceptor
172  200  2.75  # charged donor and non charged acceptor
173  32  2.75  # charged donor and non charged acceptor
173  40  2.75  # charged donor and non charged acceptor
173  41  2.75  # charged donor and non charged acceptor
173  43  2.75  # charged donor and non charged acceptor
173  44  2.75  # charged donor and non charged acceptor
173  45  2.75  # charged donor and non charged acceptor
173  205  2.75  # charged donor and non charged acceptor
173  218  2.75  # charged donor and non charged acceptor
173  146  2.75  # charged donor and non charged acceptor
173  147  2.75  # charged donor and non charged acceptor
173  151  2.75  # charged donor and non charged acceptor
173  155  2.75  # charged donor and non charged acceptor
173  156  2.75  # charged donor and non charged acceptor
173  158  2.75  # charged donor and non charged acceptor
173  159  2.75  # charged donor and non charged acceptor
173  160  2.75  # charged donor and non charged acceptor
173  161  2.75  # charged donor and non charged acceptor
173  165  2.75  # charged donor and non charged acceptor
173  170  2.75  # charged donor and non charged acceptor
173  175  2.75  # charged donor and non charged acceptor
173  177  2.75  # charged donor and non charged acceptor
173  178  2.75  # charged donor and non charged acceptor
173  179  2.75  # charged donor and non charged acceptor
173  182  2.75  # charged donor and non charged acceptor
173  183  2.75  # charged donor and non charged acceptor
173  184  2.75  # charged donor and non charged acceptor
173  185  2.75  # charged donor and non charged acceptor
173  186  2.75  # charged donor and non charged acceptor
173  187  2.75  # charged donor and non charged acceptor
173  189  2.75  # charged donor and non charged acceptor
173  190  2.75  # charged donor and non charged acceptor
173  191  2.75  # charged donor and non charged acceptor
173  192  2.75  # charged donor and non charged acceptor
173  196  2.75  # charged donor and non charged acceptor
173  197  2.75  # charged donor and non charged acceptor
173  198  2.75  # charged donor and non charged acceptor
173  200  2.75  # charged donor and non charged acceptor
174  32  2.75  # charged donor and non charged acceptor
174  40  2.75  # charged donor and non charged acceptor
174  41  2.75  # charged donor and non charged acceptor
174  43  2.75  # charged donor and non charged acceptor
174  44  2.75  # charged donor and non charged acceptor
174  45  2.75  # charged donor and non charged acceptor
174  205  2.75  # charged donor and non charged acceptor
174  218  2.75  # charged donor and non charged acceptor
174  146  2.75  # charged donor and non charged acceptor
174  147  2.75  # charged donor and non charged acceptor
174  151  2.75  # charged donor and non charged acceptor
174  155  2.75  # charged donor and non charged acceptor
174  156  2.75  # charged donor and non charged acceptor
174  158  2.75  # charged donor and non charged acceptor
174  159  2.75  # charged donor and non charged acceptor
174  160  2.75  # charged donor and non charged acceptor
174  161  2.75  # charged donor and non charged acceptor
174  165  2.75  # charged donor and non charged acceptor
174  170  2.75  # charged donor and non charged acceptor
174  175  2.75  # charged donor and non charged acceptor
174  177  2.75  # charged donor and non charged acceptor
174  178  2.75  # charged donor and non charged acceptor
174  179  2.75  # charged donor and non charged acceptor
174  182  2.75  # charged donor and non charged acceptor
174  183  2.75  # charged donor and non charged acceptor
174  184  2.75  # charged donor and non charged acceptor
174  185  2.75  # charged donor and non charged acceptor
174  186  2.75  # charged donor and non charged acceptor
174  187  2.75  # charged donor and non charged acceptor
174  189  2.75  # charged donor and non charged acceptor
174  190  2.75  # charged donor and non charged acceptor
174  191  2.75  # charged donor and non charged acceptor
174  192  2.75  # charged donor and non charged acceptor
174  196  2.75  # charged donor and non charged acceptor
174  197  2.75  # charged donor and non charged acceptor
174  198  2.75  # charged donor and non charged acceptor
174  200  2.75  # charged donor and non charged acceptor
31  42  2.75  #  non charged donor and charged acceptor
31  176  2.75  # non charged donor and charged acceptor
31  180  2.75  # non charged donor and charged acceptor
31  181  2.75  # non charged donor and charged acceptor
31  188  2.75  # non charged donor and charged acceptor
31  199  2.75  # non charged donor and charged acceptor
34  42  2.75  #  non charged donor and charged acceptor
34  176  2.75  # non charged donor and charged acceptor
34  180  2.75  # non charged donor and charged acceptor
34  181  2.75  # non charged donor and charged acceptor
34  188  2.75  # non charged donor and charged acceptor
34  199  2.75  # non charged donor and charged acceptor
35  42  2.75  #  non charged donor and charged acceptor
35  176  2.75  # non charged donor and charged acceptor
35  180  2.75  # non charged donor and charged acceptor
35  181  2.75  # non charged donor and charged acceptor
35  188  2.75  # non charged donor and charged acceptor
35  199  2.75  # non charged donor and charged acceptor
38  42  2.75  #  non charged donor and charged acceptor
38  176  2.75  # non charged donor and charged acceptor
38  180  2.75  # non charged donor and charged acceptor
38  181  2.75  # non charged donor and charged acceptor
38  188  2.75  # non charged donor and charged acceptor
38  199  2.75  # non charged donor and charged acceptor
43  42  2.75  #  non charged donor and charged acceptor
43  176  2.75  # non charged donor and charged acceptor
43  180  2.75  # non charged donor and charged acceptor
43  181  2.75  # non charged donor and charged acceptor
43  188  2.75  # non charged donor and charged acceptor
43  199  2.75  # non charged donor and charged acceptor
45  42  2.75  #  non charged donor and charged acceptor
45  176  2.75  # non charged donor and charged acceptor
45  180  2.75  # non charged donor and charged acceptor
45  181  2.75  # non charged donor and charged acceptor
45  188  2.75  # non charged donor and charged acceptor
45  199  2.75  # non charged donor and charged acceptor
218  42  2.75  # non charged donor and charged acceptor
218  176  2.75  # non charged donor and charged acceptor
218  180  2.75  # non charged donor and charged acceptor
218  181  2.75  # non charged donor and charged acceptor
218  188  2.75  # non charged donor and charged acceptor
218  199  2.75  # non charged donor and charged acceptor
150  42  2.75  # non charged donor and charged acceptor
150  176  2.75  # non charged donor and charged acceptor
150  180  2.75  # non charged donor and charged acceptor
150  181  2.75  # non charged donor and charged acceptor
150  188  2.75  # non charged donor and charged acceptor
150  199  2.75  # non charged donor and charged acceptor
152  42  2.75  # non charged donor and charged acceptor
152  176  2.75  # non charged donor and charged acceptor
152  180  2.75  # non charged donor and charged acceptor
152  181  2.75  # non charged donor and charged acceptor
152  188  2.75  # non charged donor and charged acceptor
152  199  2.75  # non charged donor and charged acceptor
154  42  2.75  # non charged donor and charged acceptor
154  176  2.75  # non charged donor and charged acceptor
154  180  2.75  # non charged donor and charged acceptor
154  181  2.75  # non charged donor and charged acceptor
154  188  2.75  # non charged donor and charged acceptor
154  199  2.75  # non charged donor and charged acceptor
157  42  2.75  # non charged donor and charged acceptor
157  176  2.75  # non charged donor and charged acceptor
157  180  2.75  # non charged donor and charged acceptor
157  181  2.75  # non charged donor and charged acceptor
157  188  2.75  # non charged donor and charged acceptor
157  199  2.75  # non charged donor and charged acceptor
162  42  2.75  # non charged donor and charged acceptor
162  176  2.75  # non charged donor and charged acceptor
162  180  2.75  # non charged donor and charged acceptor
162  181  2.75  # non charged donor and charged acceptor
162  188  2.75  # non charged donor and charged acceptor
162  199  2.75  # non charged donor and charged acceptor
163  42  2.75  # non charged donor and charged acceptor
163  176  2.75  # non charged donor and charged acceptor
163  180  2.75  # non charged donor and charged acceptor
163  181  2.75  # non charged donor and charged acceptor
163  188  2.75  # non charged donor and charged acceptor
163  199  2.75  # non charged donor and charged acceptor
164  42  2.75  # non charged donor and charged acceptor
164  176  2.75  # non charged donor and charged acceptor
164  180  2.75  # non charged donor and charged acceptor
164  181  2.75  # non charged donor and charged acceptor
164  188  2.75  # non charged donor and charged acceptor
164  199  2.75  # non charged donor and charged acceptor
166  42  2.75  # non charged donor and charged acceptor
166  176  2.75  # non charged donor and charged acceptor
166  180  2.75  # non charged donor and charged acceptor
166  181  2.75  # non charged donor and charged acceptor
166  188  2.75  # non charged donor and charged acceptor
166  199  2.75  # non charged donor and charged acceptor
167  42  2.75  # non charged donor and charged acceptor
167  176  2.75  # non charged donor and charged acceptor
167  180  2.75  # non charged donor and charged acceptor
167  181  2.75  # non charged donor and charged acceptor
167  188  2.75  # non charged donor and charged acceptor
167  199  2.75  # non charged donor and charged acceptor
168  42  2.75  # non charged donor and charged acceptor
168  176  2.75  # non charged donor and charged acceptor
168  180  2.75  # non charged donor and charged acceptor
168  181  2.75  # non charged donor and charged acceptor
168  188  2.75  # non charged donor and charged acceptor
168  199  2.75  # non charged donor and charged acceptor
169  42  2.75  # non charged donor and charged acceptor
169  176  2.75  # non charged donor and charged acceptor
169  180  2.75  # non charged donor and charged acceptor
169  181  2.75  # non charged donor and charged acceptor
169  188  2.75  # non charged donor and charged acceptor
169  199  2.75  # non charged donor and charged acceptor
187  42  2.75  # non charged donor and charged acceptor
187  176  2.75  # non charged donor and charged acceptor
187  180  2.75  # non charged donor and charged acceptor
187  181  2.75  # non charged donor and charged acceptor
187  188  2.75  # non charged donor and charged acceptor
187  199  2.75  # non charged donor and charged acceptor
200  42  2.75  # non charged donor and charged acceptor
200  176  2.75  # non charged donor and charged acceptor
200  180  2.75  # non charged donor and charged acceptor
200  181  2.75  # non charged donor and charged acceptor
200  188  2.75  # non charged donor and charged acceptor
200  199  2.75  # non charged donor and charged acceptor
